<svg width="149.982666" height="35.719971" viewBox="0 0 149.983 35.72" fill="none" xmlns="http://www.w3.org/2000/svg" xmlns:xlink="http://www.w3.org/1999/xlink">
	<desc>
			Created with Pixso.
	</desc>
	<defs/>
	<path d="M19.5549 0.0373535L19.5334 0L10.5923 0L0 18.1582L7.271 30.8804L7.28003 30.865L10.0288 35.626L31.0503 35.72L38.4326 23.062L38.3835 23.062L41.1106 18.3384L30.6814 0.0861816L19.5549 0.0373535ZM26.4714 12.1467L26.5271 12.1467L21.2712 3.01831L28.9514 3.052L37.6816 18.3308L34.949 23.064L27.7878 23.0676L30.2847 18.7434L26.4714 12.1467ZM17.7341 2.97339L21.3179 9.1731L16.356 9.1731L7.86084 23.9053L7.28149 24.9062L3.43359 18.1733L12.3 2.97339L17.7341 2.97339ZM14.2886 18.7107L18.0737 12.1465L23.0369 12.1467L26.8508 18.7444L24.3533 23.0696L16.8074 23.0737L14.2886 18.7107ZM8.99561 27.8896L10.4355 25.3926L12.5771 21.6936L15.0911 26.0481L22.636 26.0439L22.6238 26.0649L33.2317 26.0776L29.3467 32.739L11.7498 32.6602L8.99561 27.8896Z" fill="#252525" fill-opacity="1.000000" fill-rule="evenodd"/>
	<path d="M95.2649 10.8811C96.2832 10.8811 97.1104 10.0537 97.1104 9.0144C97.1104 7.9751 96.2832 7.16895 95.2649 7.16895C94.2256 7.16895 93.3982 7.9751 93.3982 9.0144C93.3982 10.0537 94.2256 10.8811 95.2649 10.8811ZM93.6104 23.1416L96.8982 23.1416L96.8982 12.5356L93.6104 12.5356L93.6104 23.1416Z" fill="#252525" fill-opacity="1.000000" fill-rule="nonzero"/>
	<path d="M98.812 28.2324L102.036 28.2324L102.036 22.0811C102.651 22.887 104.052 23.4385 105.515 23.4385C108.676 23.4385 110.585 21.0203 110.5 17.6687C110.415 14.2537 108.442 12.196 105.494 12.196C103.988 12.196 102.567 12.8535 101.973 13.8293L101.803 12.5354L98.812 12.5354L98.812 28.2324ZM102.1 17.8384C102.1 16.2476 103.161 15.187 104.688 15.187C106.236 15.187 107.212 16.2688 107.212 17.8384C107.212 19.4082 106.236 20.49 104.688 20.49C103.161 20.49 102.1 19.4294 102.1 17.8384Z" fill="#252525" fill-opacity="1.000000" fill-rule="nonzero"/>
	<path d="M110.848 19.79C110.933 21.9324 112.63 23.4172 115.302 23.4172C117.869 23.4172 119.651 22.0598 119.651 19.8748C119.651 18.3052 118.718 17.2659 116.978 16.8416L115.09 16.3748C114.411 16.2051 113.987 16.0354 113.987 15.4839C113.987 14.9324 114.433 14.5718 115.09 14.5718C115.833 14.5718 116.32 15.0598 116.299 15.781L119.248 15.781C119.164 13.5747 117.487 12.196 115.154 12.196C112.799 12.196 111.039 13.5959 111.039 15.7173C111.039 17.1384 111.824 18.3052 113.924 18.8567L115.79 19.3445C116.342 19.4932 116.575 19.7476 116.575 20.1082C116.575 20.6384 116.087 20.978 115.26 20.978C114.306 20.978 113.797 20.5325 113.797 19.79L110.848 19.79Z" fill="#252525" fill-opacity="1.000000" fill-rule="nonzero"/>
	<path d="M124.652 23.4175C125.945 23.4175 127.24 22.8235 127.897 21.9539L128.109 23.1416L131.185 23.1416L131.185 12.5356L127.918 12.5356L127.918 18.0508C127.918 19.6416 127.452 20.5115 125.945 20.5115C124.778 20.5115 124.015 19.9812 124.015 18.0083L124.015 12.5356L120.748 12.5356L120.748 19.1963C120.748 21.7205 122.148 23.4175 124.652 23.4175Z" fill="#252525" fill-opacity="1.000000" fill-rule="nonzero"/>
	<path d="M136.365 23.1414L136.365 17.3506C136.365 15.5688 137.319 15.0598 138.253 15.0598C139.293 15.0598 139.972 15.696 139.972 17.0112L139.972 23.1414L143.195 23.1414L143.195 17.3506C143.195 15.5476 144.128 15.0386 145.062 15.0386C146.102 15.0386 146.802 15.6748 146.802 17.0112L146.802 23.1414L149.983 23.1414L149.983 16.2051C149.983 13.7869 148.71 12.1748 145.974 12.1748C144.447 12.1748 143.195 12.9172 142.644 14.0627C142.007 12.9172 140.905 12.1748 139.144 12.1748C137.977 12.1748 136.895 12.7051 136.259 13.5535L136.132 12.5354L133.077 12.5354L133.077 23.1414L136.365 23.1414Z" fill="#252525" fill-opacity="1.000000" fill-rule="nonzero"/>
	<path d="M50.4626 7.44629L46.9839 7.44629L46.9839 23.1433L56.6143 23.1433L56.6143 20.0676L50.4626 20.0676L50.4626 7.44629Z" fill="#252525" fill-opacity="1.000000" fill-rule="nonzero"/>
	<path d="M56.9465 17.8191C56.9465 21.1707 59.1951 23.3979 62.5889 23.3979C65.9617 23.3979 68.2102 21.1707 68.2102 17.8191C68.2102 14.4675 65.9617 12.219 62.5889 12.219C59.1951 12.219 56.9465 14.4675 56.9465 17.8191ZM60.2344 17.7979C60.2344 16.2068 61.1677 15.1462 62.5889 15.1462C63.989 15.1462 64.9224 16.2068 64.9224 17.7979C64.9224 19.4099 63.989 20.4705 62.5889 20.4705C61.1677 20.4705 60.2344 19.4099 60.2344 17.7979Z" fill="#252525" fill-opacity="1.000000" fill-rule="nonzero"/>
	<path d="M68.7356 17.6492C68.7356 20.8523 70.8147 23.0159 73.7629 23.0159C75.1843 23.0159 76.4146 22.5068 77.0298 21.6794L77.0298 23.1431C77.0298 24.6069 76.1177 25.5825 74.5054 25.5825C73.063 25.5825 72.0659 24.9038 72.0024 23.6946L68.6934 23.6946C68.9902 26.6008 71.2388 28.5522 74.3147 28.5522C77.9419 28.5522 80.2327 26.1978 80.2327 22.4644L80.2327 12.5371L77.2842 12.5371L77.1145 13.6189C76.5205 12.7493 75.269 12.1765 73.8267 12.1765C70.8569 12.1765 68.7356 14.4038 68.7356 17.6492ZM72.0449 17.5645C72.0449 16.0371 73.063 15.019 74.3569 15.019C75.863 15.019 76.9661 16.0159 76.9661 17.5645C76.9661 19.1128 75.8843 20.1733 74.3782 20.1733C73.0842 20.1733 72.0449 19.1128 72.0449 17.5645Z" fill="#252525" fill-opacity="1.000000" fill-rule="nonzero"/>
	<path d="M81.1848 17.8191C81.1848 21.1707 83.4333 23.3979 86.8271 23.3979C90.2 23.3979 92.4485 21.1707 92.4485 17.8191C92.4485 14.4675 90.2 12.219 86.8271 12.219C83.4333 12.219 81.1848 14.4675 81.1848 17.8191ZM84.4727 17.7979C84.4727 16.2068 85.406 15.1462 86.8271 15.1462C88.2273 15.1462 89.1606 16.2068 89.1606 17.7979C89.1606 19.4099 88.2273 20.4705 86.8271 20.4705C85.406 20.4705 84.4727 19.4099 84.4727 17.7979Z" fill="#252525" fill-opacity="1.000000" fill-rule="nonzero"/>
</svg>
